{
  "name": "idoweb",
  "css_prefix_text": "icon-",
  "css_use_suffix": false,
  "hinting": true,
  "units_per_em": 1000,
  "ascent": 850,
  "glyphs": [
    {
      "uid": "84c7ea994260b284dee7c5e60a15a504",
      "css": "email",
      "code": 59392,
      "src": "custom_icons",
      "selected": true,
      "svg": {
        "path": "M131.6 183.3L868.4 183.3 500 551.7 131.6 183.3ZM900 222.4L900 816.7 100 816.7 100 222.4 500 622.4 900 222.4Z",
        "width": 1000
      },
      "search": [
        "email"
      ]
    },
    {
      "uid": "53c301aa7846ae0f7fb483557e408702",
      "css": "myf",
      "code": 59393,
      "src": "custom_icons",
      "selected": true,
      "svg": {
        "path": "M698.9 362.5C653.9 415.9 641.4 502.1 589.1 548 503.1 500 580.2 339.9 570.2 253 527.7 339.5 514.6 454.8 464.2 533.1 354.9 525.5 416.7 356.8 403.7 260.6 379.7 311.9 369.4 365.9 358.2 419.6 346.2 477.2 341.6 568.2 301.5 608.9 229.9 681.3 2 603.1 70.6 495.3 101.4 446.8 235.5 465.8 237.1 533.2 209.2 550.2 152.6 521.5 119.8 540.7 153.9 577.3 206.4 606.8 252.3 589.9 299.8 572.5 308.6 448.7 324.2 377.9 335.5 326.5 354 182.4 407.4 177.3 494.2 169 472.1 335.6 468 412 481.2 372.2 498.5 330.6 513.4 283.3 529.8 231.4 543.9 118.7 611.9 173.5 662 214 623.9 344 619.4 416 657.8 386.8 654.1 292.3 702.7 283.5 786.3 268.5 759.9 409.6 740.5 469 771.8 447.2 766.2 376.5 808.7 374.4 836.7 373.2 850.5 413.7 854.1 442.5 881.8 666.6 754.1 915.5 577.8 934.6 526.9 940.1 446.5 943 441.5 870.3 478.8 867.3 502.8 889.1 543.7 889.2 738.9 889.5 781.4 639.8 801.1 450.1 771.5 454.8 759 578 717.9 582.6 644.3 590.8 687.8 418.4 698.9 363.1L698.9 362.5Z",
        "width": 1000
      },
      "search": [
        "myf"
      ]
    },
    {
      "uid": "6cf224af78a871f355bfdfbe0097e6d5",
      "css": "ainf",
      "code": 59394,
      "src": "custom_icons",
      "selected": true,
      "svg": {
        "path": "M386.6 767.7C488.8 786.8 438.7 790.1 560.7 781.7 549.8 789.9 531 794.2 517.8 797.2 472.8 807.1 413.6 789.9 386.6 767.7ZM282.8 722.6C295.6 731.6 293.3 733.3 303.3 742.6 332.7 769.8 344.6 773 373.4 791.9 379.5 796 377.7 795.1 380.6 797.5 307.8 786.2 301 743.2 282.8 722.6ZM388.8 825.8L566.4 831.2C619.5 826.2 667.5 810 706 787.5 752.2 760.4 760 748.6 792.2 716.7 835.4 674 845.9 631.2 867.1 582.3 865.5 650.7 822.2 736.9 773.3 783.7 754.9 801.2 738.8 813 713.8 828.8 646 871.5 544.4 886.4 461.7 860.4 439 853.3 409.1 843 391.3 828 390.6 827.5 389.6 826.5 388.8 825.8ZM760.9 539.3C752.2 595 712.6 680.8 670.4 710.8 588.3 768.9 459.6 775.3 360 727 255.6 676.2 211.4 598.9 247.6 470.8 294.2 306.1 463.3 198.9 653.9 257.6 684.1 266.9 703.5 296.3 718.6 323.6 753.3 386.6 774.5 452.8 760.9 539.3ZM595.5 797.1C642 777.8 732.9 699.3 764.5 662.9 801.5 620.4 826.1 566.6 837.5 508.1 840.8 491.1 842 448.5 845.6 439 859.1 470.1 850.6 541.1 840.5 574.8 818.9 646.9 771.8 716.1 707.6 755.4 689.1 766.6 619 805.9 595.5 797.1ZM264 744.5C216.1 722.2 158 631.9 142.7 571 124 496.5 130.5 403.6 170 337.4 174.9 329.1 172.6 331.9 178.1 326.2 170.4 367.7 158.7 373.1 158.3 442.2 158 484.5 165.2 522 177.9 558 194.3 604.4 213.4 625 221.6 648.6 228 667.4 230.2 680.6 239.3 698.1 247.8 714.3 257 730.3 264 744.5ZM769.3 610C775 584.5 784.1 566.9 787.9 533 798.1 441.6 780 375.1 735.6 300.8 748 306.7 784.1 341.1 793.9 352.7 842.8 410.1 808.7 548.4 769.3 610ZM220.8 463.7C218.6 331.8 341.3 207.3 475 178.9 515.2 170.4 587.3 195.7 611.8 218.8 499.8 206.2 428 225.9 353.1 277.6 279.3 328.5 251.7 386.1 220.8 463.7ZM785.2 303.5C775.5 299.5 754.7 281 740.6 271.5 725.1 260.9 709.3 253.6 692.9 244.5L606.3 181.4C668.7 192 760.8 246.8 785.2 303.5ZM192.6 509.4C166.8 453.5 193.9 344.5 226.7 285.6 237 267.1 243.6 259.5 255.5 243.5 280.2 210.3 347.3 181.3 390.6 177.6 378.3 188.4 363.9 191.3 348.4 202.1 238.9 278.8 196.4 369.6 192.6 509.4ZM383.8 150C424.8 132.7 477.1 123.2 529.1 128.1 593.4 134.2 611 149.7 654.6 167.5 608 158.6 590.8 146.5 528.9 147.3 478.4 148 433.3 148 383.8 150ZM450.1 104.3C394.5 113.6 345.1 133.7 307.1 160.7L200.9 252.4C52.1 401 76.9 663.3 274 783.1 285.8 790.4 292.9 793.6 305.8 799.9 335.1 814 402 901.8 555.1 900 769.5 897.4 947.8 693.3 880.4 460.4 872.8 434.3 870.1 408.5 861.4 382.4 844.2 330.3 784.2 240 744 201 681.3 140.1 573.8 83.7 450.1 104.3Z",
        "width": 1000
      },
      "search": [
        "ainf"
      ]
    }
  ]
}